%YAML 1.1
%TAG !u! tag:unity3d.com,2011:
--- !u!114 &11400000
MonoBehaviour:
  m_ObjectHideFlags: 0
  m_CorrespondingSourceObject: {fileID: 0}
  m_PrefabInstance: {fileID: 0}
  m_PrefabAsset: {fileID: 0}
  m_GameObject: {fileID: 0}
  m_Enabled: 1
  m_EditorHideFlags: 0
  m_Script: {fileID: 11500000, guid: 2f412c03c39038344bf16c5575670500, type: 3}
  m_Name: Audio Clip Container
  m_EditorClassIdentifier: 
  SfxPairingList:
  - Clip: {fileID: 8300000, guid: f1767e7de48d07f42968d860ea3ce3fe, type: 3}
    Identifier: sample_one
  - Clip: {fileID: 8300000, guid: b6e02c19730739f4788cc15cb874900c, type: 3}
    Identifier: sample_two
  - Clip: {fileID: 8300000, guid: 4cffc855d90bf514cac17b64755fd1d8, type: 3}
    Identifier: sample_three
